{
	"nav": {
		"links": [
			{
				"href": "/link1",
				"displayName": "Link Anchor"
			},
			{
				"href": "/link2",
				"displayName": "Link Back"
			},
			{
				"href": "/link3",
				"displayName": "Link Cancel"
			}
		]
	},
	"site": {
		"title": "Title",
		"author": "Tushar Ghate",
		"meta": {
			"charset": "utf8",
			"description": "Lorem ipsum dolor sit amit.",
			"keywords": "lorem, ipsum, dolor, sit, amit",
			"favicon": "favicon.ico"
		}
	},
	"translations": {
		"HELLO_WORLD": {
			"en-CA": "Hello World",
			"fr-CA": "Bonjour le monde",
			"ru-CA": "Привет мир!"
		}
	}
}